…
bbb_para_tbl <- bbb_pst_lst$ para_tbl |> 
  dplyr::mutate(src = "BBB") |> 
  dplyr::select(src, everything())
```

```{r}
#| label: af-bbb-token-tbl

af_bbb_token_tbl <- dplyr::bind_rows(
  af_token_tbl, 
  bbb_token_tbl
)

# af_bbb_token_tbl
# # A tibble: 725 × 5
#    src     pdx   sdx   wdx word      
#    <chr> <int> <int> <int> <chr>     
#  1 AF        1     1     2 animal    
#  2 AF        1     1     3 populace  
#  3 AF        1     1     6 poorly    
#  4 AF        1     1     7 run       
#  5 AF        1     1     8 manor     
#  6 AF        1     1     9 farm      
#  7 AF        1     1    10 near      
#  8 AF        1     1    11 willingdon
#  9 AF        1     1    13 england   
# 10 AF        1     1    15 ripened   
# # ℹ 715 more rows
```
…
# record the number of occurrences of each unique non-stop-word
af_bbb_vocab_wt <- af_bbb_token_tbl |> 
  dplyr::group_by(src, pdx, word) |> 
  dplyr::summarise(
    wt  = n(), 
    wdx = min(wdx)
  ) |> 
  dplyr::select(src, pdx, word, wdx, wt) |> 
  dplyr::arrange(src, wdx)

# Note: the tally beloe includes the term 'mr'
# which is subsequently removed by tm:DocumentTermMatrix()

# af_bbb_vocab_wt
# # A tibble: 598 × 5
# # Groups:   src, pdx [9]
#    src     pdx word         wdx    wt
#    <chr> <int> <chr>      <int> <int>
#  1 AF        1 animal         2     3
#  2 AF        1 populace       3     1
#  3 AF        1 poorly         6     1
#  4 AF        1 run            7     1
#  5 AF        1 manor          8     1
#  6 AF        1 farm           9     6
#  7 AF        1 near          10     1
#  8 AF        1 willingdon    11     1
#  9 AF        1 england       13     2
# 10 AF        1 ripened       15     1
# # ℹ 588 more rows
…
