6 Linear Regression – EDA for Machine Learning
…
It turns out that the least squares solution \((\hat{\beta}_0, \hat{\beta}_m, \hat{\beta}_f)\) can be obtained as the vector of coefficients of an orthogonal projection of vector \(s_\bullet\) onto the 3-dimensional subspace spanned by vectors \((1_\bullet, m_\bullet, f_\bullet)\). More on this later.

6.1.2 Survey Data: Better Life Index

We now turn to a data set having several data columns, namely the OECD’s Better Life Index (BLI). 3 The following table shows a portion of the data.

Table 6.2: Better Life Index (BLI)

# A tibble: 42 × 26
  code  country     CG_SENG CG_VOTO EQ_AIRP EQ_WATER ES_EDUA ES_EDUEX ES_STCS
  <chr> <chr>         <dbl>   <dbl>   <dbl>    <dbl>   <dbl>    <dbl>   <dbl>
1 AUS   Australia       2.7      92     6.7       92      84       20     499
2 AUT   Austria         1.3      76    12.2       92      86       17     491
3 BEL   Belgium         2        88    12.8       79      80       19     500
4 BRA   Brazil          2.2      80    11.7       70      57       16     400
5 CAN   Canada          2.9      68     7.1       90      92       17     517
6 CHE   Switzerland     2.3      45    10.1       96      89       17     498
# ℹ 36 more rows
# ℹ 17 more variables: HO_HISH <dbl>, HS_LEB <dbl>, HS_SFRH <dbl>,
#   IW_HADI <dbl>, IW_HNFW <dbl>, JE_EMPL <dbl>, JE_LMIS <dbl>, JE_LTUR <dbl>,
#   JE_PEARN <dbl>, PS_FSAFEN <dbl>, PS_REPH <dbl>, SC_SNTWS <dbl>,
#   SW_LIFS <dbl>, WL_EWLH <dbl>, WL_TNOW <dbl>, HO_BASE <dbl>, HO_NUMR <dbl>
…
