10 Latent Dirichlet Allocation – EDA for Machine Learning
…
Here is a table showing the frequency of each term within each document (paragraph).

Show the code

af_bbb_tf_tbl <- af_bbb_dtm_lst |> tidytext::tidy()
af_bbb_tf_tbl

Table 10.2: Term-frequency: number of occurrences of each term within each document

# A tibble: 593 × 3
   document term       count
   <chr>    <chr>      <dbl>
 1 1        adopt          1
 2 1        adult          1
 3 1        alcoholic      1
 4 1        animal         3
 5 1        animalism      2
 6 1        animals        5
 7 1        announces      1
 8 1        aside          1
 9 1        associates     1
10 1        assume         1
# ℹ 583 more rows
…
} else {
  # read in previously saved file
  af_bbb_topics <- readr::read_tsv(here::here(
    "data", "retain", "af_bbb_topics.txt"
  ))
}

# af_bbb_topics |> object.size(): 49 KB
# 48992 bytes

af_bbb_topics |> print(n = 4, digits = 2)

# A tibble: 970 × 3
  topic term          beta
  <dbl> <chr>        <dbl>
1     1 abolishes 0.00271 
2     2 abolishes 0.000245
3     1 abridged  0.000247
4     2 abridged  0.00269 
# ℹ 966 more rows
…
