8 Text Analysis – EDA for Machine Learning
…
The table above merely identifies the original line number of each line. The next step is to break each line into a sequence of “tokens”, where a token is a meaningful unit of text (such as a word) to be used as the unit of analysis. (“Tokenization” is the process of splitting text into tokens.) Applying tidytext::unnest_tokens() to the data table above, we obtain the following table, with just one token (word) per row.

Show the code

sf_token_tbl <- sf_line_tbl |> 
  tidytext::unnest_tokens(
    input  = "line", 
    output = "word"
  )
sf_token_tbl

# A tibble: 38 × 2
   l_idx word   
   <int> <chr>  
 1    24 life's 
 2    24 but    
 3    24 a      
 4    24 walking
 5    24 shadow 
 6    24 a      
 7    24 poor   
 8    24 player 
 9    25 that   
10    25 struts 
# ℹ 28 more rows
…
We now reconfigure the DFM as a tidy data frame (tibble).

Show the code

presidential_tbl <- presidential_dfm |> 
  tidytext::tidy()
presidential_tbl

# A tibble: 2,272 × 3
   document       term            count
   <chr>          <chr>           <dbl>
 1 1861-Lincoln   fellow-citizens     1
 2 1861-Lincoln   of                146
 3 1933-Roosevelt of                109
 4 1961-Kennedy   of                 65
 5 1861-Lincoln   the               256
 6 1933-Roosevelt the               130
 7 1961-Kennedy   the                86
 8 1861-Lincoln   united              5
 9 1933-Roosevelt united              2
10 1961-Kennedy   united              2
# ℹ 2,262 more rows
…
if (topicmodels_loaded) {
  ap_lda <- AssociatedPress |> 
    LDA(
      k = 2, 
      # set a seed so that the output of the model is predictable
      control = list(seed = 1234)
    )
  ap_lda
}

A LDA_VEM topic model with 2 topics.

We now construct (topic, term) probabilities (called \(\beta\) in the LDA literature).

# A tibble: 20,946 × 3
   topic term           beta
   <int> <chr>         <dbl>
 1     1 aaron      1.69e-12
 2     2 aaron      3.90e- 5
 3     1 abandon    2.65e- 5
 4     2 abandon    3.99e- 5
 5     1 abandoned  1.39e- 4
 6     2 abandoned  5.88e- 5
 7     1 abandoning 2.45e-33
 8     2 abandoning 2.34e- 5
 9     1 abbott     2.13e- 6
10     2 abbott     2.97e- 5
# ℹ 20,936 more rows
…
