13 Time Series Spectrum Analysis – EDA for Machine Learning
…
Gaps between peak sunspot numbers vary, so a simple sinusoidal wave (or other function) having a fixed period does not fit the data well. On the other hand, the variability of the data is clarified by Fourier decomposition and subsequent grouping of fitted sine waves within successive bands of frequencies. This approach is discussed in Section 13.2.

13.1.2 Average daily temperatures

Figure 13.9 shows average daily temperatures for Honolulu and New York City over a 25-year period (1995-2020). The overall average temperature in NYC is about 56 (F), well below that of Honolulu (77). Also note that the standard deviation of NYC temperatures,17.1 (F), is well above that of Honolulu (3.4). So Honolulu temperatures are higher than those of NYC and fluctuate less (as visitors to those two cities may testify). Less clear, however, is the degree to which seasonal variation accounts for the overall variation in each city. This is a question that can be addressed by Fourier decomposition.

13.2 Mathematical Framework

13.2.1 Data derived from a random process

Statistical data usually take the form of one or more data frames in which each row represents an observation and each column represents a variable of interest. For example, here are the first few values of the temperature data shown in Figure 13.9.

Table 13.1: Temperatures (F) from Honolulu and New York City, 1995-2020

# A tibble: 9,265 × 3
  date         HNL   NYC
  <date>     <dbl> <dbl>
1 1995-01-01  71.3  44  
2 1995-01-02  72.5  41.8
3 1995-01-03  73.2  28.1
# ℹ 9,262 more rows
…
