12 Time Series Forecasting – EDA for Machine Learning
…
12.1 Introduction

This technical note introduces the basic components of widely used statistical models of time series data. Such models support the understanding of underlying processes. They are also heavily used to forecast future values, which is the emphasis of this note.

The examples and methods presented here are from (shumway2025?) and the R package astsa (astsa?).

12.2 Mathematical Framework

12.2.1 Data derived from a random process

Statistical applications are often based on one or more data frames in which each row represents an observation and each column represents a variable of interest. Consider for example the following predator-prey data (Table 12.1 and Figure 12.9), based on the record of snowshoe hare (astsa::Hare) and lynx (astsa::Lynx) pelts purchased by the Hudson’s Bay Company of Canada from 1845 to 1935.

Table 12.1: Hare and lynx pelts (thousands)

# A tibble: 91 × 3
     yr  hare  lynx
  <dbl> <dbl> <dbl>
1  1845  19.6  30.1
2  1846  19.6  45.2
3  1847  19.6  49.2
4  1848  12.0  39.5
5  1849  28.0  21.2
# ℹ 86 more rows
…
